{
	"info": {
		"_postman_id": "4c3da3ef-ffda-4fbd-b91b-8e8a8bf2bddb",
		"name": "paxos",
		"schema": "https://schema.getpostman.com/json/collection/v2.1.0/collection.json"
	},
	"item": [
		{
			"name": "getAccount",
			"request": {
				"method": "GET",
				"header": [
					{
						"key": "Content-Type",
						"value": "application/json",
						"type": "text"
					}
				],
				"url": {
					"raw": "http://localhost:8080/v1/account",
					"protocol": "http",
					"host": [
						"localhost"
					],
					"port": "8080",
					"path": [
						"v1",
						"account"
					]
				}
			},
			"response": []
		},
		{
			"name": "createTransaction",
			"request": {
				"method": "POST",
				"header": [
					{
						"key": "Content-Type",
						"value": "application/json",
						"type": "text"
					}
				],
				"body": {
					"mode": "raw",
					"raw": "{\n    \"type\": \"credit\",\n    \"amount\":50\n}"
				},
				"url": {
					"raw": "http://localhost:8080/v1/transaction",
					"protocol": "http",
					"host": [
						"localhost"
					],
					"port": "8080",
					"path": [
						"v1",
						"transaction"
					]
				}
			},
			"response": []
		},
		{
			"name": "getTransactions",
			"request": {
				"method": "GET",
				"header": [
					{
						"key": "Content-Type",
						"value": "application/json",
						"type": "text"
					}
				],
				"url": {
					"raw": "http://localhost:8080/v1/transaction",
					"protocol": "http",
					"host": [
						"localhost"
					],
					"port": "8080",
					"path": [
						"v1",
						"transaction"
					]
				}
			},
			"response": []
		},
		{
			"name": "getTransaction",
			"request": {
				"method": "GET",
				"header": [],
				"url": {
					"raw": "http://localhost:8080/v1/transaction/44eeb6d1-fe89-4e9f-8a87-f07df2e6fdcc",
					"protocol": "http",
					"host": [
						"localhost"
					],
					"port": "8080",
					"path": [
						"v1",
						"transaction",
						"44eeb6d1-fe89-4e9f-8a87-f07df2e6fdcc"
					]
				}
			},
			"response": []
		}
	]
}